…
``` r
asteroiddata2 <- as_tibble(asteroiddata2)%>% mutate(diameter_range = asteroiddata2$est_diameter_meter_max - asteroiddata2$est_diameter_meter_min)
```

# add table showing the ranges for the logic

### tibble after data wrangling

xxxx

``` r
asteroiddata2
```

    ## # A tibble: 99 x 17
    ##    observation_date   
    ##    <dttm>             
    ##  1 2021-10-04 01:42:53
    ##  2 2021-10-04 01:42:53
    ##  3 2021-10-04 01:42:53
    ##  4 2021-10-04 01:42:53
    ##  5 2021-10-04 01:42:53
    ##  6 2021-10-04 01:42:53
    ##  7 2021-10-04 01:42:53
    ##  8 2021-10-04 01:42:53
    ##  9 2021-10-04 01:42:53
    ## 10 2021-10-04 01:42:53
    ## # ... with 89 more rows, and 16
    ## #   more variables:
    ## #   Asteroid_ID <chr>,
    ## #   Asteroid_Name <chr>,
    ## #   potentially_hazardous <fct>,
    ## #   magnitude <dbl>,
    ## #   sentry_object <fct>, ...
…
